SessionId,Operation,Timestamp
1,Edit Resource,19-05-2021 02:15
2,Archive Resource,19-05-2021 02:16
3,Edit Resource,19-05-2021 02:19
3,Archive Resource,19-05-2021 02:21
4,Edit Resource,19-05-2021 02:36
4,Edit Resource,19-05-2021 02:39
5,Archive Resource,19-05-2021 02:39
5,Archive Resource,19-05-2021 02:40
6,Edit Resource,19-05-2021 02:15
6,Archive Resource,19-05-2021 02:16
6,Archive Resource,19-05-2021 02:19
7,Edit Resource,19-05-2021 02:15
7,Edit Resource,19-05-2021 02:16
7,Archive Resource,19-05-2021 02:19
